<?xml version="1.0" standalone="no"?>
<!DOCTYPE svg PUBLIC "-//W3C//DTD SVG 20010904//EN"
 "http://www.w3.org/TR/2001/REC-SVG-20010904/DTD/svg10.dtd">
<svg version="1.0" xmlns="http://www.w3.org/2000/svg"
 width="200.000000pt" height="200.000000pt" viewBox="0 0 200.000000 200.000000"
 preserveAspectRatio="xMidYMid meet">
<metadata>
Created by potrace 1.15, written by Peter Selinger 2001-2017
</metadata>
<g transform="translate(0.000000,200.000000) scale(0.100000,-0.100000)"
fill="#000000" stroke="none">
<path d="M516 808 c-8 -13 -17 -33 -21 -45 -4 -16 -14 -23 -30 -23 -16 0 -26
-8 -33 -27 l-10 -28 -1 28 c-1 33 -27 37 -37 5 l-7 -23 -8 23 c-6 16 -17 22
-37 22 -34 0 -52 -16 -52 -47 0 -29 -14 -30 -34 -2 -13 19 -12 23 5 40 21 21
24 41 9 70 -8 15 -21 19 -58 19 -72 -1 -102 -34 -102 -114 0 -75 60 -108 82
-45 l11 32 13 -26 c17 -31 33 -36 97 -34 33 2 53 8 62 20 12 16 13 16 18 -2 4
-17 12 -20 49 -17 24 1 49 5 55 9 6 4 14 3 17 -2 3 -5 34 -9 68 -9 66 0 108
17 108 43 0 18 -21 19 -39 3 -11 -11 -11 -9 -1 8 22 36 7 54 -47 54 -36 0 -44
3 -35 12 7 7 12 27 12 45 0 26 -4 33 -20 33 -11 0 -26 -10 -34 -22z"/>
<path d="M775 820 c-35 -13 -57 -48 -62 -94 -5 -38 -2 -48 20 -70 60 -60 147
-4 147 94 0 51 -57 89 -105 70z"/>
<path d="M1028 813 c-9 -10 -20 -30 -23 -45 -8 -30 -9 -31 -72 -28 -40 1 -43
0 -43 -25 0 -14 -9 -43 -20 -65 -24 -47 -27 -108 -5 -116 23 -9 45 15 51 57 6
33 10 39 31 39 13 0 33 5 43 10 11 6 21 6 24 1 3 -5 38 -9 77 -8 62 0 72 3 78
20 8 20 8 20 13 -1 8 -30 32 -27 45 6 l11 27 1 -26 1 -26 143 0 c78 0 150 4
159 8 9 5 19 5 22 1 3 -5 44 -9 91 -9 73 -1 87 2 99 19 13 18 14 18 19 -2 6
-24 37 -27 37 -2 1 16 2 16 15 -2 17 -23 59 -15 75 14 12 23 -4 37 -25 20 -12
-10 -13 -6 -8 24 5 31 3 36 -14 36 -10 0 -24 -5 -31 -12 -9 -9 -12 -9 -12 0 0
21 -27 13 -34 -10 l-7 -23 -9 23 c-8 19 -16 23 -42 20 -28 -2 -35 -9 -45 -38
l-12 -35 0 38 c-1 33 -4 37 -26 37 -18 0 -23 4 -18 16 4 11 8 12 13 4 10 -16
45 -8 45 10 0 8 -10 16 -21 18 -12 2 -24 12 -27 23 -8 30 -44 24 -62 -11 -8
-16 -15 -36 -15 -45 0 -11 -11 -15 -43 -15 -24 0 -48 -5 -55 -12 -9 -9 -12 -9
-12 0 0 8 -18 12 -50 12 -38 0 -50 -4 -50 -15 0 -8 5 -15 10 -15 6 0 5 -8 -2
-20 -19 -29 -25 -25 -20 15 5 46 -25 50 -35 5 -8 -43 -23 -48 -16 -5 5 30 3
35 -14 35 -10 0 -24 -5 -31 -12 -9 -9 -12 -9 -12 0 0 8 -15 11 -42 9 -37 -2
-43 -5 -46 -27 -2 -14 -8 -29 -14 -35 -6 -7 -7 3 -3 28 7 36 7 37 -24 37 -18
0 -30 4 -26 10 3 5 19 7 35 3 26 -5 30 -3 30 17 0 18 -4 21 -24 18 -20 -4 -26
0 -28 16 -4 27 -30 32 -50 9z"/>
</g>
</svg>
